problems/09_cpu_v3/dump.vcd
$date
	Mon Apr 15 10:13:46 2024
$end
$version
	Icarus Verilog
$end
$timescale
	100ps
$end
$scope module testbench $end
$var reg 1 ! clk $end
$scope module cpu_top $end
$var wire 1 ! clk $end
$var wire 1 " mem_we $end
$var wire 32 # mem_data [31:0] $end
$var wire 32 $ mem_addr [31:0] $end
$var wire 32 % instr_data [31:0] $end
$var wire 32 & instr_addr [31:0] $end
$var wire 16 ' data_out [15:0] $end
$scope module core $end
$var wire 1 ( branch_taken $end
$var wire 1 ! clk $end
$var wire 32 ) instr [31:0] $end
$var wire 32 * instr_addr [31:0] $end
$var wire 32 + last_pc [31:0] $end
$var wire 32 , mem_addr [31:0] $end
$var wire 32 - mem_data [31:0] $end
$var wire 5 . rf_raddr0 [4:0] $end
$var wire 5 / rf_raddr1 [4:0] $end
$var wire 5 0 rf_waddr [4:0] $end
$var wire 32 1 rf_wdata [31:0] $end
$var wire 5 2 rs2 [4:0] $end
$var wire 5 3 rs1 [4:0] $end
$var wire 1 4 rf_we $end
$var wire 32 5 rf_rdata1 [31:0] $end
$var wire 32 6 rf_rdata0 [31:0] $end
$var wire 5 7 rd [4:0] $end
$var wire 32 8 pc_target [31:0] $end
$var wire 32 9 pc_next [31:0] $end
$var wire 1 " mem_we $end
$var wire 32 : instr_data [31:0] $end
$var wire 32 ; imm32 [31:0] $end
$var wire 12 < imm12 [11:0] $end
$var wire 1 = has_imm $end
$var wire 1 > cmp_res $end
$var wire 32 ? branch_target [31:0] $end
$var wire 1 @ branch $end
$var wire 32 A alu_result [31:0] $end
$var wire 3 B alu_op [2:0] $end
$var wire 32 C alu_b_src [31:0] $end
$var reg 32 D pc [31:0] $end
$scope module alu $end
$var wire 32 E src_b [31:0] $end
$var wire 32 F src_a [31:0] $end
$var wire 3 G op [2:0] $end
$var reg 32 H res [31:0] $end
$upscope $end
$scope module control $end
$var wire 32 I instr [31:0] $end
$var wire 7 J opcode [6:0] $end
$var wire 5 K funct5 [4:0] $end
$var wire 3 L funct3 [2:0] $end
$var wire 2 M funct2 [1:0] $end
$var reg 3 N alu_op [2:0] $end
$var reg 1 @ branch $end
$var reg 1 = has_imm $end
$var reg 12 O imm12 [11:0] $end
$var reg 1 " mem_we $end
$var reg 1 4 rf_we $end
$upscope $end
$scope module rf $end
$var wire 1 ! clk $end
$var wire 5 P raddr0 [4:0] $end
$var wire 5 Q raddr1 [4:0] $end
$var wire 5 R waddr [4:0] $end
$var wire 32 S wdata [31:0] $end
$var wire 1 4 we $end
$var wire 32 T rdata1 [31:0] $end
$var wire 32 U rdata0 [31:0] $end
$scope begin reg_init[0] $end
$upscope $end
$scope begin reg_init[1] $end
$upscope $end
$scope begin reg_init[2] $end
$upscope $end
$scope begin reg_init[3] $end
$upscope $end
$scope begin reg_init[4] $end
$upscope $end
$scope begin reg_init[5] $end
$upscope $end
$scope begin reg_init[6] $end
$upscope $end
$scope begin reg_init[7] $end
$upscope $end
$scope begin reg_init[8] $end
$upscope $end
$scope begin reg_init[9] $end
$upscope $end
$scope begin reg_init[10] $end
$upscope $end
$scope begin reg_init[11] $end
$upscope $end
$scope begin reg_init[12] $end
$upscope $end
$scope begin reg_init[13] $end
$upscope $end
$scope begin reg_init[14] $end
$upscope $end
$scope begin reg_init[15] $end
$upscope $end
$scope begin reg_init[16] $end
$upscope $end
$scope begin reg_init[17] $end
$upscope $end
$scope begin reg_init[18] $end
$upscope $end
$scope begin reg_init[19] $end
$upscope $end
$scope begin reg_init[20] $end
$upscope $end
$scope begin reg_init[21] $end
$upscope $end
$scope begin reg_init[22] $end
$upscope $end
$scope begin reg_init[23] $end
$upscope $end
$scope begin reg_init[24] $end
$upscope $end
$scope begin reg_init[25] $end
$upscope $end
$scope begin reg_init[26] $end
$upscope $end
$scope begin reg_init[27] $end
$upscope $end
$scope begin reg_init[28] $end
$upscope $end
$scope begin reg_init[29] $end
$upscope $end
$scope begin reg_init[30] $end
$upscope $end
$scope begin reg_init[31] $end
$upscope $end
$upscope $end
$upscope $end
$scope module mem_ctrl $end
$var wire 32 V addr [31:0] $end
$var wire 1 ! clk $end
$var wire 32 W data [31:0] $end
$var wire 1 " we $end
$var reg 16 X data_out [15:0] $end
$upscope $end
$scope module rom $end
$var wire 5 Y addr [4:0] $end
$var wire 1 ! clk $end
$var reg 32 Z q [31:0] $end
$upscope $end
$upscope $end
$upscope $end
$enddefinitions $end
#0
$dumpvars
b0 Z
b0 Y
b0 X
b0 W
b0 V
b0 U
b0 T
b0 S
b0 R
b0 Q
b0 P
b0 O
b0 N
b0 M
b0 L
b0 K
b0 J
b0 I
b0 H
b0 G
b0 F
b0 E
b11111111111111111111111111111111 D
b0 C
b0 B
b0 A
0@
b11111111111111111111111111111111 ?
0>
0=
b0 <
b0 ;
b0 :
b0 9
b0 8
b0 7
b0 6
b0 5
04
b0 3
b0 2
b0 1
b0 0
b0 /
b0 .
b0 -
b0 ,
b11111 +
b0 *
b0 )
0(
b0 '
b0 &
b0 %
b0 $
b0 #
0"
0!
$end
#10
b1 Y
b1 &
b1 *
b1 9
b101 0
b101 R
b101 7
1=
b1 B
b1 G
b1 N
14
b10011 J
b1 8
b1010010011 )
b1010010011 I
b1010010011 %
b1010010011 :
b1010010011 Z
b0 ?
b0 D
1!
#20
0!
#30
b10 Y
1>
b1 $
b1 ,
b1 V
b1 1
b1 S
b1 A
b1 H
b10 &
b10 *
b10 9
b1 C
b1 E
b10 8
b110 0
b110 R
b110 7
b1 /
b1 Q
b1 2
b1 ;
b1 <
b1 O
1=
b1 B
b1 G
b1 N
14
b10 ?
b1 D
b100000000001100010011 )
b100000000001100010011 I
b100000000001100010011 %
b100000000001100010011 :
b100000000001100010011 Z
1!
#40
0!
#50
0>
b0 $
b0 ,
b0 V
b0 1
b0 S
b0 A
b0 H
b11 Y
b0 C
b0 E
b11 &
b11 *
b11 9
b111 0
b111 R
b111 7
b0 /
b0 Q
b0 2
1=
b0 ;
b0 <
b0 O
b1 B
b1 G
b1 N
14
b11 8
b1110010011 )
b1110010011 I
b1110010011 %
b1110010011 :
b1110010011 Z
b10 ?
b10 D
1!
#60
0!
#70
b100 Y
1>
b1 $
b1 ,
b1 V
b1 1
b1 S
b1 A
b1 H
b100 &
b100 *
b100 9
b1 C
b1 E
b100 8
b11100 0
b11100 R
b11100 7
b1 /
b1 Q
b1 2
b1 ;
b1 <
b1 O
1=
b1 B
b1 G
b1 N
14
b100 ?
b11 D
b100000000111000010011 )
b100000000111000010011 I
b100000000111000010011 %
b100000000111000010011 :
b100000000111000010011 Z
1!
#80
0!
#90
b1100 $
b1100 ,
b1100 V
b1100 1
b1100 S
b1100 A
b1100 H
b101 Y
b1100 C
b1100 E
b101 &
b101 *
b101 9
b11101 0
b11101 R
b11101 7
b1100 /
b1100 Q
b1100 2
1=
b1100 ;
b1100 <
b1100 O
b1 B
b1 G
b1 N
14
b101 8
b110000000000111010010011 )
b110000000000111010010011 I
b110000000000111010010011 %
b110000000000111010010011 :
b110000000000111010010011 Z
b10000 ?
b100 D
1!
#100
0!
#110
b110 Y
b1 $
b1 ,
b1 V
b1 1
b1 S
b1 A
b1 H
b110 &
b110 *
b110 9
b1 6
b1 F
b1 U
b0 C
b0 E
b110 8
b111 0
b111 R
b111 7
b110 .
b110 P
b110 3
b101 /
b101 Q
b101 2
0=
b0 ;
b0 <
b0 O
b1 B
b1 G
b1 N
14
b110011 J
b101 ?
b101 D
b10100110000001110110011 )
b10100110000001110110011 I
b10100110000001110110011 %
b10100110000001110110011 :
b10100110000001110110011 Z
1!
#120
0!
#130
b100000 $
b100000 ,
b100000 V
b100000 1
b100000 S
b100000 A
b100000 H
b111 Y
b0 6
b0 F
b0 U
b1 #
b1 -
b1 W
b1 5
b1 T
b100000 C
b100000 E
b111 &
b111 *
b111 9
b0 0
b0 R
b0 7
b0 .
b0 P
b0 3
b111 /
b111 Q
b111 2
1"
1=
b100000 ;
b100000 <
b100000 O
b1 B
b1 G
b1 N
04
b100011 J
b10 L
b1 M
b111 8
b10011100000010000000100011 )
b10011100000010000000100011 I
b10011100000010000000100011 %
b10011100000010000000100011 :
b10011100000010000000100011 Z
b100110 ?
b110 D
1!
#140
0!
#150
b1000 Y
b1 $
b1 ,
b1 V
b1 1
b1 S
b1 A
b1 H
b1000 &
b1000 *
b1000 9
b1 6
b1 F
b1 U
b0 #
b0 -
b0 W
b0 5
b0 T
b0 C
b0 E
b1000 8
b101 0
b101 R
b101 7
b110 .
b110 P
b110 3
b0 /
b0 Q
b0 2
14
0"
1=
b0 ;
b0 <
b0 O
b1 B
b1 G
b1 N
b10011 J
b0 L
b0 M
b111 ?
b111 D
b1 '
b1 X
b110000001010010011 )
b110000001010010011 I
b110000001010010011 %
b110000001010010011 :
b110000001010010011 Z
1!
#160
0!
#170
b1001 Y
b1001 &
b1001 *
b1001 9
b110 0
b110 R
b110 7
b111 .
b111 P
b111 3
1=
b1 B
b1 G
b1 N
14
b1001 8
b111000001100010011 )
b111000001100010011 I
b111000001100010011 %
b111000001100010011 :
b111000001100010011 Z
b1000 ?
b1000 D
1!
#180
0!
#190
b1010 Y
b10 $
b10 ,
b10 V
b10 1
b10 S
b10 A
b10 H
b1010 &
b1010 *
b1010 9
b1 C
b1 E
b1010 8
b11100 0
b11100 R
b11100 7
b11100 .
b11100 P
b11100 3
b1 /
b1 Q
b1 2
b1 ;
b1 <
b1 O
1=
b1 B
b1 G
b1 N
14
b1010 ?
b1001 D
b111100000111000010011 )
b111100000111000010011 I
b111100000111000010011 %
b111100000111000010011 :
b111100000111000010011 Z
1!
#200
0!
#210
b101 Y
b1100 #
b1100 -
b1100 W
b1100 5
b1100 T
1(
b1100 C
b1100 E
b1110 $
b1110 ,
b1110 V
b1110 1
b1110 S
b1110 A
b1110 H
b101 &
b101 *
b101 9
b1101 0
b1101 R
b1101 7
b11101 /
b11101 Q
b11101 2
1@
0=
b11111111111111111111111111111011 ;
b111111111011 <
b111111111011 O
b100 B
b100 G
b100 N
04
b1100011 J
b1 L
b11 M
b11111 K
b10 6
b10 F
b10 U
b101 8
b11111111110111100001011011100011 )
b11111111110111100001011011100011 I
b11111111110111100001011011100011 %
b11111111110111100001011011100011 :
b11111111110111100001011011100011 Z
b101 ?
b1010 D
1!
#220
0!
#230
b110 Y
b10 $
b10 ,
b10 V
b10 1
b10 S
b10 A
b10 H
b1 C
b1 E
b110 &
b110 *
b110 9
b1 6
b1 F
b1 U
b1 #
b1 -
b1 W
b1 5
b1 T
0(
b110 8
b111 0
b111 R
b111 7
b110 .
b110 P
b110 3
b101 /
b101 Q
b101 2
14
0@
b0 ;
b0 <
b0 O
b1 B
b1 G
b1 N
b110011 J
b0 L
b0 M
b0 K
b101 ?
b101 D
b10100110000001110110011 )
b10100110000001110110011 I
b10100110000001110110011 %
b10100110000001110110011 :
b10100110000001110110011 Z
1!
#240
0!
#250
b100000 $
b100000 ,
b100000 V
b100000 1
b100000 S
b100000 A
b100000 H
b111 Y
b0 6
b0 F
b0 U
b10 #
b10 -
b10 W
b10 5
b10 T
b100000 C
b100000 E
b111 &
b111 *
b111 9
b0 0
b0 R
b0 7
b0 .
b0 P
b0 3
b111 /
b111 Q
b111 2
1"
1=
b100000 ;
b100000 <
b100000 O
b1 B
b1 G
b1 N
04
b100011 J
b10 L
b1 M
b111 8
b10011100000010000000100011 )
b10011100000010000000100011 I
b10011100000010000000100011 %
b10011100000010000000100011 :
b10011100000010000000100011 Z
b100110 ?
b110 D
1!
#260
0!
#270
b1000 Y
b1 $
b1 ,
b1 V
b1 1
b1 S
b1 A
b1 H
b1000 &
b1000 *
b1000 9
b1 6
b1 F
b1 U
b0 #
b0 -
b0 W
b0 5
b0 T
b0 C
b0 E
b1000 8
b101 0
b101 R
b101 7
b110 .
b110 P
b110 3
b0 /
b0 Q
b0 2
14
0"
1=
b0 ;
b0 <
b0 O
b1 B
b1 G
b1 N
b10011 J
b0 L
b0 M
b111 ?
b111 D
b10 '
b10 X
b110000001010010011 )
b110000001010010011 I
b110000001010010011 %
b110000001010010011 :
b110000001010010011 Z
1!
#280
0!
#290
b10 $
b10 ,
b10 V
b10 1
b10 S
b10 A
b10 H
b1001 Y
b10 6
b10 F
b10 U
b1001 &
b1001 *
b1001 9
b110 0
b110 R
b110 7
b111 .
b111 P
b111 3
1=
b1 B
b1 G
b1 N
14
b1001 8
b111000001100010011 )
b111000001100010011 I
b111000001100010011 %
b111000001100010011 :
b111000001100010011 Z
b1000 ?
b1000 D
1!
#300
0!
#310
b1010 Y
b11 $
b11 ,
b11 V
b11 1
b11 S
b11 A
b11 H
b1010 &
b1010 *
b1010 9
b1 C
b1 E
b1010 8
b11100 0
b11100 R
b11100 7
b11100 .
b11100 P
b11100 3
b1 /
b1 Q
b1 2
b1 ;
b1 <
b1 O
1=
b1 B
b1 G
b1 N
14
b1010 ?
b1001 D
b111100000111000010011 )
b111100000111000010011 I
b111100000111000010011 %
b111100000111000010011 :
b111100000111000010011 Z
1!
#320
0!
#330
b101 Y
b1100 #
b1100 -
b1100 W
b1100 5
b1100 T
1(
b1100 C
b1100 E
b1111 $
b1111 ,
b1111 V
b1111 1
b1111 S
b1111 A
b1111 H
b101 &
b101 *
b101 9
b1101 0
b1101 R
b1101 7
b11101 /
b11101 Q
b11101 2
1@
0=
b11111111111111111111111111111011 ;
b111111111011 <
b111111111011 O
b100 B
b100 G
b100 N
04
b1100011 J
b1 L
b11 M
b11111 K
b11 6
b11 F
b11 U
b101 8
b11111111110111100001011011100011 )
b11111111110111100001011011100011 I
b11111111110111100001011011100011 %
b11111111110111100001011011100011 :
b11111111110111100001011011100011 Z
b101 ?
b1010 D
1!
#340
0!
#350
b110 Y
b11 $
b11 ,
b11 V
b11 1
b11 S
b11 A
b11 H
b1 C
b1 E
b110 &
b110 *
b110 9
b10 6
b10 F
b10 U
b1 #
b1 -
b1 W
b1 5
b1 T
0(
b110 8
b111 0
b111 R
b111 7
b110 .
b110 P
b110 3
b101 /
b101 Q
b101 2
14
0@
b0 ;
b0 <
b0 O
b1 B
b1 G
b1 N
b110011 J
b0 L
b0 M
b0 K
b101 ?
b101 D
b10100110000001110110011 )
b10100110000001110110011 I
b10100110000001110110011 %
b10100110000001110110011 :
b10100110000001110110011 Z
1!
#360
0!
#370
b100000 $
b100000 ,
b100000 V
b100000 1
b100000 S
b100000 A
b100000 H
b111 Y
b0 6
b0 F
b0 U
b11 #
b11 -
b11 W
b11 5
b11 T
b100000 C
b100000 E
b111 &
b111 *
b111 9
b0 0
b0 R
b0 7
b0 .
b0 P
b0 3
b111 /
b111 Q
b111 2
1"
1=
b100000 ;
b100000 <
b100000 O
b1 B
b1 G
b1 N
04
b100011 J
b10 L
b1 M
b111 8
b10011100000010000000100011 )
b10011100000010000000100011 I
b10011100000010000000100011 %
b10011100000010000000100011 :
b10011100000010000000100011 Z
b100110 ?
b110 D
1!
#380
0!
#390
b1000 Y
b10 $
b10 ,
b10 V
b10 1
b10 S
b10 A
b10 H
b1000 &
b1000 *
b1000 9
b10 6
b10 F
b10 U
b0 #
b0 -
b0 W
b0 5
b0 T
b0 C
b0 E
b1000 8
b101 0
b101 R
b101 7
b110 .
b110 P
b110 3
b0 /
b0 Q
b0 2
14
0"
1=
b0 ;
b0 <
b0 O
b1 B
b1 G
b1 N
b10011 J
b0 L
b0 M
b111 ?
b111 D
b11 '
b11 X
b110000001010010011 )
b110000001010010011 I
b110000001010010011 %
b110000001010010011 :
b110000001010010011 Z
1!
#400
0!
#410
b11 $
b11 ,
b11 V
b11 1
b11 S
b11 A
b11 H
b1001 Y
b11 6
b11 F
b11 U
b1001 &
b1001 *
b1001 9
b110 0
b110 R
b110 7
b111 .
b111 P
b111 3
1=
b1 B
b1 G
b1 N
14
b1001 8
b111000001100010011 )
b111000001100010011 I
b111000001100010011 %
b111000001100010011 :
b111000001100010011 Z
b1000 ?
b1000 D
1!
#420
0!
#430
b1010 Y
b100 $
b100 ,
b100 V
b100 1
b100 S
b100 A
b100 H
b1010 &
b1010 *
b1010 9
b1 C
b1 E
b1010 8
b11100 0
b11100 R
b11100 7
b11100 .
b11100 P
b11100 3
b1 /
b1 Q
b1 2
b1 ;
b1 <
b1 O
1=
b1 B
b1 G
b1 N
14
b1010 ?
b1001 D
b111100000111000010011 )
b111100000111000010011 I
b111100000111000010011 %
b111100000111000010011 :
b111100000111000010011 Z
1!
#440
0!
#450
b101 Y
b1100 #
b1100 -
b1100 W
b1100 5
b1100 T
1(
b1100 C
b1100 E
b1000 $
b1000 ,
b1000 V
b1000 1
b1000 S
b1000 A
b1000 H
b101 &
b101 *
b101 9
b1101 0
b1101 R
b1101 7
b11101 /
b11101 Q
b11101 2
1@
0=
b11111111111111111111111111111011 ;
b111111111011 <
b111111111011 O
b100 B
b100 G
b100 N
04
b1100011 J
b1 L
b11 M
b11111 K
b100 6
b100 F
b100 U
b101 8
b11111111110111100001011011100011 )
b11111111110111100001011011100011 I
b11111111110111100001011011100011 %
b11111111110111100001011011100011 :
b11111111110111100001011011100011 Z
b101 ?
b1010 D
1!
#460
0!
#470
b110 Y
b10 C
b10 E
b110 &
b110 *
b110 9
b11 6
b11 F
b11 U
b10 #
b10 -
b10 W
b10 5
b10 T
0(
b101 $
b101 ,
b101 V
b101 1
b101 S
b101 A
b101 H
b110 8
b111 0
b111 R
b111 7
b110 .
b110 P
b110 3
b101 /
b101 Q
b101 2
14
0@
b0 ;
b0 <
b0 O
b1 B
b1 G
b1 N
b110011 J
b0 L
b0 M
b0 K
b101 ?
b101 D
b10100110000001110110011 )
b10100110000001110110011 I
b10100110000001110110011 %
b10100110000001110110011 :
b10100110000001110110011 Z
1!
#480
0!
#490
b100000 $
b100000 ,
b100000 V
b100000 1
b100000 S
b100000 A
b100000 H
b111 Y
b0 6
b0 F
b0 U
b101 #
b101 -
b101 W
b101 5
b101 T
b100000 C
b100000 E
b111 &
b111 *
b111 9
b0 0
b0 R
b0 7
b0 .
b0 P
b0 3
b111 /
b111 Q
b111 2
1"
1=
b100000 ;
b100000 <
b100000 O
b1 B
b1 G
b1 N
04
b100011 J
b10 L
b1 M
b111 8
b10011100000010000000100011 )
b10011100000010000000100011 I
b10011100000010000000100011 %
b10011100000010000000100011 :
b10011100000010000000100011 Z
b100110 ?
b110 D
1!
#500
0!
#510
b1000 Y
b11 $
b11 ,
b11 V
b11 1
b11 S
b11 A
b11 H
b1000 &
b1000 *
b1000 9
b11 6
b11 F
b11 U
b0 #
b0 -
b0 W
b0 5
b0 T
b0 C
b0 E
b1000 8
b101 0
b101 R
b101 7
b110 .
b110 P
b110 3
b0 /
b0 Q
b0 2
14
0"
1=
b0 ;
b0 <
b0 O
b1 B
b1 G
b1 N
b10011 J
b0 L
b0 M
b111 ?
b111 D
b101 '
b101 X
b110000001010010011 )
b110000001010010011 I
b110000001010010011 %
b110000001010010011 :
b110000001010010011 Z
1!
#520
0!
#530
b101 $
b101 ,
b101 V
b101 1
b101 S
b101 A
b101 H
b1001 Y
b101 6
b101 F
b101 U
b1001 &
b1001 *
b1001 9
b110 0
b110 R
b110 7
b111 .
b111 P
b111 3
1=
b1 B
b1 G
b1 N
14
b1001 8
b111000001100010011 )
b111000001100010011 I
b111000001100010011 %
b111000001100010011 :
b111000001100010011 Z
b1000 ?
b1000 D
1!
#540
0!
#550
b1010 Y
b1010 &
b1010 *
b1010 9
b100 6
b100 F
b100 U
b1 C
b1 E
b1010 8
b11100 0
b11100 R
b11100 7
b11100 .
b11100 P
b11100 3
b1 /
b1 Q
b1 2
b1 ;
b1 <
b1 O
1=
b1 B
b1 G
b1 N
14
b1010 ?
b1001 D
b111100000111000010011 )
b111100000111000010011 I
b111100000111000010011 %
b111100000111000010011 :
b111100000111000010011 Z
1!
#560
0!
#570
b101 Y
b1100 #
b1100 -
b1100 W
b1100 5
b1100 T
1(
b1100 C
b1100 E
b1001 $
b1001 ,
b1001 V
b1001 1
b1001 S
b1001 A
b1001 H
b101 &
b101 *
b101 9
b1101 0
b1101 R
b1101 7
b11101 /
b11101 Q
b11101 2
1@
0=
b11111111111111111111111111111011 ;
b111111111011 <
b111111111011 O
b100 B
b100 G
b100 N
04
b1100011 J
b1 L
b11 M
b11111 K
b101 6
b101 F
b101 U
b101 8
b11111111110111100001011011100011 )
b11111111110111100001011011100011 I
b11111111110111100001011011100011 %
b11111111110111100001011011100011 :
b11111111110111100001011011100011 Z
b101 ?
b1010 D
1!
#580
0!
#590
b110 Y
b11 C
b11 E
b110 &
b110 *
b110 9
b11 #
b11 -
b11 W
b11 5
b11 T
0(
b1000 $
b1000 ,
b1000 V
b1000 1
b1000 S
b1000 A
b1000 H
b110 8
b111 0
b111 R
b111 7
b110 .
b110 P
b110 3
b101 /
b101 Q
b101 2
14
0@
b0 ;
b0 <
b0 O
b1 B
b1 G
b1 N
b110011 J
b0 L
b0 M
b0 K
b101 ?
b101 D
b10100110000001110110011 )
b10100110000001110110011 I
b10100110000001110110011 %
b10100110000001110110011 :
b10100110000001110110011 Z
1!
#600
0!
#610
b100000 $
b100000 ,
b100000 V
b100000 1
b100000 S
b100000 A
b100000 H
b111 Y
b0 6
b0 F
b0 U
b1000 #
b1000 -
b1000 W
b1000 5
b1000 T
b100000 C
b100000 E
b111 &
b111 *
b111 9
b0 0
b0 R
b0 7
b0 .
b0 P
b0 3
b111 /
b111 Q
b111 2
1"
1=
b100000 ;
b100000 <
b100000 O
b1 B
b1 G
b1 N
04
b100011 J
b10 L
b1 M
b111 8
b10011100000010000000100011 )
b10011100000010000000100011 I
b10011100000010000000100011 %
b10011100000010000000100011 :
b10011100000010000000100011 Z
b100110 ?
b110 D
1!
#620
0!
#630
b1000 Y
b101 $
b101 ,
b101 V
b101 1
b101 S
b101 A
b101 H
b1000 &
b1000 *
b1000 9
b101 6
b101 F
b101 U
b0 #
b0 -
b0 W
b0 5
b0 T
b0 C
b0 E
b1000 8
b101 0
b101 R
b101 7
b110 .
b110 P
b110 3
b0 /
b0 Q
b0 2
14
0"
1=
b0 ;
b0 <
b0 O
b1 B
b1 G
b1 N
b10011 J
b0 L
b0 M
b111 ?
b111 D
b1000 '
b1000 X
b110000001010010011 )
b110000001010010011 I
b110000001010010011 %
b110000001010010011 :
b110000001010010011 Z
1!
#640
0!
#650
b1000 $
b1000 ,
b1000 V
b1000 1
b1000 S
b1000 A
b1000 H
b1001 Y
b1000 6
b1000 F
b1000 U
b1001 &
b1001 *
b1001 9
b110 0
b110 R
b110 7
b111 .
b111 P
b111 3
1=
b1 B
b1 G
b1 N
14
b1001 8
b111000001100010011 )
b111000001100010011 I
b111000001100010011 %
b111000001100010011 :
b111000001100010011 Z
b1000 ?
b1000 D
1!
#660
0!
#670
b1010 Y
b110 $
b110 ,
b110 V
b110 1
b110 S
b110 A
b110 H
b1010 &
b1010 *
b1010 9
b101 6
b101 F
b101 U
b1 C
b1 E
b1010 8
b11100 0
b11100 R
b11100 7
b11100 .
b11100 P
b11100 3
b1 /
b1 Q
b1 2
b1 ;
b1 <
b1 O
1=
b1 B
b1 G
b1 N
14
b1010 ?
b1001 D
b111100000111000010011 )
b111100000111000010011 I
b111100000111000010011 %
b111100000111000010011 :
b111100000111000010011 Z
1!
#680
0!
#690
b101 Y
b1100 #
b1100 -
b1100 W
b1100 5
b1100 T
1(
b1100 C
b1100 E
b1010 $
b1010 ,
b1010 V
b1010 1
b1010 S
b1010 A
b1010 H
b101 &
b101 *
b101 9
b1101 0
b1101 R
b1101 7
b11101 /
b11101 Q
b11101 2
1@
0=
b11111111111111111111111111111011 ;
b111111111011 <
b111111111011 O
b100 B
b100 G
b100 N
04
b1100011 J
b1 L
b11 M
b11111 K
b110 6
b110 F
b110 U
b101 8
b11111111110111100001011011100011 )
b11111111110111100001011011100011 I
b11111111110111100001011011100011 %
b11111111110111100001011011100011 :
b11111111110111100001011011100011 Z
b101 ?
b1010 D
1!
#700
0!
#710
b110 Y
b101 C
b101 E
b110 &
b110 *
b110 9
b1000 6
b1000 F
b1000 U
b101 #
b101 -
b101 W
b101 5
b101 T
0(
b1101 $
b1101 ,
b1101 V
b1101 1
b1101 S
b1101 A
b1101 H
b110 8
b111 0
b111 R
b111 7
b110 .
b110 P
b110 3
b101 /
b101 Q
b101 2
14
0@
b0 ;
b0 <
b0 O
b1 B
b1 G
b1 N
b110011 J
b0 L
b0 M
b0 K
b101 ?
b101 D
b10100110000001110110011 )
b10100110000001110110011 I
b10100110000001110110011 %
b10100110000001110110011 :
b10100110000001110110011 Z
1!
#720
0!
#730
b100000 $
b100000 ,
b100000 V
b100000 1
b100000 S
b100000 A
b100000 H
b111 Y
b0 6
b0 F
b0 U
b1101 #
b1101 -
b1101 W
b1101 5
b1101 T
b100000 C
b100000 E
b111 &
b111 *
b111 9
b0 0
b0 R
b0 7
b0 .
b0 P
b0 3
b111 /
b111 Q
b111 2
1"
1=
b100000 ;
b100000 <
b100000 O
b1 B
b1 G
b1 N
04
b100011 J
b10 L
b1 M
b111 8
b10011100000010000000100011 )
b10011100000010000000100011 I
b10011100000010000000100011 %
b10011100000010000000100011 :
b10011100000010000000100011 Z
b100110 ?
b110 D
1!
#740
0!
#750
b1000 Y
b1000 $
b1000 ,
b1000 V
b1000 1
b1000 S
b1000 A
b1000 H
b1000 &
b1000 *
b1000 9
b1000 6
b1000 F
b1000 U
b0 #
b0 -
b0 W
b0 5
b0 T
b0 C
b0 E
b1000 8
b101 0
b101 R
b101 7
b110 .
b110 P
b110 3
b0 /
b0 Q
b0 2
14
0"
1=
b0 ;
b0 <
b0 O
b1 B
b1 G
b1 N
b10011 J
b0 L
b0 M
b111 ?
b111 D
b1101 '
b1101 X
b110000001010010011 )
b110000001010010011 I
b110000001010010011 %
b110000001010010011 :
b110000001010010011 Z
1!
#760
0!
#770
b1101 $
b1101 ,
b1101 V
b1101 1
b1101 S
b1101 A
b1101 H
b1001 Y
b1101 6
b1101 F
b1101 U
b1001 &
b1001 *
b1001 9
b110 0
b110 R
b110 7
b111 .
b111 P
b111 3
1=
b1 B
b1 G
b1 N
14
b1001 8
b111000001100010011 )
b111000001100010011 I
b111000001100010011 %
b111000001100010011 :
b111000001100010011 Z
b1000 ?
b1000 D
1!
#780
0!
#790
b1010 Y
b111 $
b111 ,
b111 V
b111 1
b111 S
b111 A
b111 H
b1010 &
b1010 *
b1010 9
b110 6
b110 F
b110 U
b1 C
b1 E
b1010 8
b11100 0
b11100 R
b11100 7
b11100 .
b11100 P
b11100 3
b1 /
b1 Q
b1 2
b1 ;
b1 <
b1 O
1=
b1 B
b1 G
b1 N
14
b1010 ?
b1001 D
b111100000111000010011 )
b111100000111000010011 I
b111100000111000010011 %
b111100000111000010011 :
b111100000111000010011 Z
1!
#800
0!
#810
b101 Y
b1100 #
b1100 -
b1100 W
b1100 5
b1100 T
1(
b1100 C
b1100 E
b1011 $
b1011 ,
b1011 V
b1011 1
b1011 S
b1011 A
b1011 H
b101 &
b101 *
b101 9
b1101 0
b1101 R
b1101 7
b11101 /
b11101 Q
b11101 2
1@
0=
b11111111111111111111111111111011 ;
b111111111011 <
b111111111011 O
b100 B
b100 G
b100 N
04
b1100011 J
b1 L
b11 M
b11111 K
b111 6
b111 F
b111 U
b101 8
b11111111110111100001011011100011 )
b11111111110111100001011011100011 I
b11111111110111100001011011100011 %
b11111111110111100001011011100011 :
b11111111110111100001011011100011 Z
b101 ?
b1010 D
1!
#820
0!
#830
b110 Y
b1000 C
b1000 E
b110 &
b110 *
b110 9
b1101 6
b1101 F
b1101 U
b1000 #
b1000 -
b1000 W
b1000 5
b1000 T
0(
b10101 $
b10101 ,
b10101 V
b10101 1
b10101 S
b10101 A
b10101 H
b110 8
b111 0
b111 R
b111 7
b110 .
b110 P
b110 3
b101 /
b101 Q
b101 2
14
0@
b0 ;
b0 <
b0 O
b1 B
b1 G
b1 N
b110011 J
b0 L
b0 M
b0 K
b101 ?
b101 D
b10100110000001110110011 )
b10100110000001110110011 I
b10100110000001110110011 %
b10100110000001110110011 :
b10100110000001110110011 Z
1!
#840
0!
#850
b100000 $
b100000 ,
b100000 V
b100000 1
b100000 S
b100000 A
b100000 H
b111 Y
b0 6
b0 F
b0 U
b10101 #
b10101 -
b10101 W
b10101 5
b10101 T
b100000 C
b100000 E
b111 &
b111 *
b111 9
b0 0
b0 R
b0 7
b0 .
b0 P
b0 3
b111 /
b111 Q
b111 2
1"
1=
b100000 ;
b100000 <
b100000 O
b1 B
b1 G
b1 N
04
b100011 J
b10 L
b1 M
b111 8
b10011100000010000000100011 )
b10011100000010000000100011 I
b10011100000010000000100011 %
b10011100000010000000100011 :
b10011100000010000000100011 Z
b100110 ?
b110 D
1!
#860
0!
#870
b1000 Y
b1101 $
b1101 ,
b1101 V
b1101 1
b1101 S
b1101 A
b1101 H
b1000 &
b1000 *
b1000 9
b1101 6
b1101 F
b1101 U
b0 #
b0 -
b0 W
b0 5
b0 T
b0 C
b0 E
b1000 8
b101 0
b101 R
b101 7
b110 .
b110 P
b110 3
b0 /
b0 Q
b0 2
14
0"
1=
b0 ;
b0 <
b0 O
b1 B
b1 G
b1 N
b10011 J
b0 L
b0 M
b111 ?
b111 D
b10101 '
b10101 X
b110000001010010011 )
b110000001010010011 I
b110000001010010011 %
b110000001010010011 :
b110000001010010011 Z
1!
#880
0!
