problems/09_cpu_v3/dump.vcd
$date
	Mon May 20 12:47:19 2024
$end
$version
	Icarus Verilog
$end
$timescale
	100ps
$end
$scope module testbench $end
$var reg 1 ! clk $end
$scope module cpu_top $end
$var wire 1 ! clk $end
$var wire 1 " mem_we $end
$var wire 32 # mem_data [31:0] $end
$var wire 32 $ mem_addr [31:0] $end
$var wire 32 % instr_data [31:0] $end
$var wire 32 & instr_addr [31:0] $end
$var wire 16 ' data_out [15:0] $end
$scope module core $end
$var wire 1 ( branch_taken $end
$var wire 1 ! clk $end
$var wire 32 ) instr [31:0] $end
$var wire 32 * instr_addr [31:0] $end
$var wire 32 + last_pc [31:0] $end
$var wire 32 , mem_addr [31:0] $end
$var wire 32 - mem_data [31:0] $end
$var wire 5 . rf_raddr0 [4:0] $end
$var wire 5 / rf_raddr1 [4:0] $end
$var wire 5 0 rf_waddr [4:0] $end
$var wire 32 1 rf_wdata [31:0] $end
$var wire 5 2 rs2 [4:0] $end
$var wire 5 3 rs1 [4:0] $end
$var wire 1 4 rf_we $end
$var wire 32 5 rf_rdata1 [31:0] $end
$var wire 32 6 rf_rdata0 [31:0] $end
$var wire 5 7 rd [4:0] $end
$var wire 32 8 pc_target [31:0] $end
$var wire 32 9 pc_next [31:0] $end
$var wire 1 " mem_we $end
$var wire 32 : instr_data [31:0] $end
$var wire 32 ; imm32 [31:0] $end
$var wire 12 < imm12 [11:0] $end
$var wire 1 = has_imm $end
$var wire 1 > cmp_res $end
$var wire 32 ? branch_target [31:0] $end
$var wire 1 @ branch $end
$var wire 32 A alu_result [31:0] $end
$var wire 3 B alu_op [2:0] $end
$var wire 32 C alu_b_src [31:0] $end
$var reg 32 D pc [31:0] $end
$scope module alu $end
$var wire 32 E src_b [31:0] $end
$var wire 32 F src_a [31:0] $end
$var wire 3 G op [2:0] $end
$var reg 32 H res [31:0] $end
$upscope $end
$scope module control $end
$var wire 32 I instr [31:0] $end
$var wire 7 J opcode [6:0] $end
$var wire 5 K funct5 [4:0] $end
$var wire 3 L funct3 [2:0] $end
$var wire 2 M funct2 [1:0] $end
$var reg 3 N alu_op [2:0] $end
$var reg 1 @ branch $end
$var reg 1 = has_imm $end
$var reg 12 O imm12 [11:0] $end
$var reg 1 " mem_we $end
$var reg 1 4 rf_we $end
$upscope $end
$scope module rf $end
$var wire 1 ! clk $end
$var wire 5 P raddr0 [4:0] $end
$var wire 5 Q raddr1 [4:0] $end
$var wire 5 R waddr [4:0] $end
$var wire 32 S wdata [31:0] $end
$var wire 1 4 we $end
$var wire 32 T rdata1 [31:0] $end
$var wire 32 U rdata0 [31:0] $end
$scope begin reg_init[0] $end
$var parameter 2 V i $end
$upscope $end
$scope begin reg_init[1] $end
$var parameter 2 W i $end
$upscope $end
$scope begin reg_init[2] $end
$var parameter 3 X i $end
$upscope $end
$scope begin reg_init[3] $end
$var parameter 3 Y i $end
$upscope $end
$scope begin reg_init[4] $end
$var parameter 4 Z i $end
$upscope $end
$scope begin reg_init[5] $end
$var parameter 4 [ i $end
$upscope $end
$scope begin reg_init[6] $end
$var parameter 4 \ i $end
$upscope $end
$scope begin reg_init[7] $end
$var parameter 4 ] i $end
$upscope $end
$scope begin reg_init[8] $end
$var parameter 5 ^ i $end
$upscope $end
$scope begin reg_init[9] $end
$var parameter 5 _ i $end
$upscope $end
$scope begin reg_init[10] $end
$var parameter 5 ` i $end
$upscope $end
$scope begin reg_init[11] $end
$var parameter 5 a i $end
$upscope $end
$scope begin reg_init[12] $end
$var parameter 5 b i $end
$upscope $end
$scope begin reg_init[13] $end
$var parameter 5 c i $end
$upscope $end
$scope begin reg_init[14] $end
$var parameter 5 d i $end
$upscope $end
$scope begin reg_init[15] $end
$var parameter 5 e i $end
$upscope $end
$scope begin reg_init[16] $end
$var parameter 6 f i $end
$upscope $end
$scope begin reg_init[17] $end
$var parameter 6 g i $end
$upscope $end
$scope begin reg_init[18] $end
$var parameter 6 h i $end
$upscope $end
$scope begin reg_init[19] $end
$var parameter 6 i i $end
$upscope $end
$scope begin reg_init[20] $end
$var parameter 6 j i $end
$upscope $end
$scope begin reg_init[21] $end
$var parameter 6 k i $end
$upscope $end
$scope begin reg_init[22] $end
$var parameter 6 l i $end
$upscope $end
$scope begin reg_init[23] $end
$var parameter 6 m i $end
$upscope $end
$scope begin reg_init[24] $end
$var parameter 6 n i $end
$upscope $end
$scope begin reg_init[25] $end
$var parameter 6 o i $end
$upscope $end
$scope begin reg_init[26] $end
$var parameter 6 p i $end
$upscope $end
$scope begin reg_init[27] $end
$var parameter 6 q i $end
$upscope $end
$scope begin reg_init[28] $end
$var parameter 6 r i $end
$upscope $end
$scope begin reg_init[29] $end
$var parameter 6 s i $end
$upscope $end
$scope begin reg_init[30] $end
$var parameter 6 t i $end
$upscope $end
$scope begin reg_init[31] $end
$var parameter 6 u i $end
$upscope $end
$upscope $end
$upscope $end
$scope module mem_ctrl $end
$var wire 32 v addr [31:0] $end
$var wire 1 ! clk $end
$var wire 32 w data [31:0] $end
$var wire 1 " we $end
$var reg 16 x data_out [15:0] $end
$upscope $end
$scope module rom $end
$var wire 5 y addr [4:0] $end
$var wire 1 ! clk $end
$var parameter 32 z ADDR_WIDTH $end
$var parameter 32 { WIDTH $end
$var reg 32 | q [31:0] $end
$upscope $end
$upscope $end
$upscope $end
$enddefinitions $end
$comment Show the parameter values. $end
$dumpall
b100000 {
b101 z
b11111 u
b11110 t
b11101 s
b11100 r
b11011 q
b11010 p
b11001 o
b11000 n
b10111 m
b10110 l
b10101 k
b10100 j
b10011 i
b10010 h
b10001 g
b10000 f
b1111 e
b1110 d
b1101 c
b1100 b
b1011 a
b1010 `
b1001 _
b1000 ^
b111 ]
b110 \
b101 [
b100 Z
b11 Y
b10 X
b1 W
b0 V
$end
#0
$dumpvars
b0 |
b0 y
b0 x
b0 w
b0 v
b0 U
b0 T
b0 S
b0 R
b0 Q
b0 P
b0 O
b0 N
b0 M
b0 L
b0 K
b0 J
b0 I
b0 H
b0 G
b0 F
b0 E
b11111111111111111111111111111111 D
b0 C
b0 B
b0 A
0@
b11111111111111111111111111111111 ?
0>
0=
b0 <
b0 ;
b0 :
b0 9
b0 8
b0 7
b0 6
b0 5
04
b0 3
b0 2
b0 1
b0 0
b0 /
b0 .
b0 -
b0 ,
b11111 +
b0 *
b0 )
0(
b0 '
b0 &
b0 %
b0 $
b0 #
0"
0!
$end
#10
b1 y
b1 &
b1 *
b1 9
b1 0
b1 R
b1 7
b1000 /
b1000 Q
b1000 2
b1101111 J
b1 8
b100000000000000011101111 )
b100000000000000011101111 I
b100000000000000011101111 %
b100000000000000011101111 :
b100000000000000011101111 |
b0 ?
b0 D
1!
#20
0!
#30
b10 y
b10 &
b10 *
b10 9
b10 8
b0 0
b0 R
b0 7
b0 /
b0 Q
b0 2
1=
b1 B
b1 G
b1 N
14
b10011 J
b1 ?
b1 D
b10011 )
b10011 I
b10011 %
b10011 :
b10011 |
1!
#40
0!
#50
1>
b1100 $
b1100 ,
b1100 v
b1100 1
b1100 S
b1100 A
b1100 H
b11 y
b1100 C
b1100 E
b11 &
b11 *
b11 9
b1110 0
b1110 R
b1110 7
b1100 /
b1100 Q
b1100 2
b1100 ;
b1100 <
b1100 O
1=
b1 B
b1 G
b1 N
14
b11 8
b110000000000011100010011 )
b110000000000011100010011 I
b110000000000011100010011 %
b110000000000011100010011 :
b110000000000011100010011 |
b1110 ?
b10 D
1!
#60
0!
#70
b100 y
b1 $
b1 ,
b1 v
b1 1
b1 S
b1 A
b1 H
b100 &
b100 *
b100 9
b1 C
b1 E
b100 8
b1111 0
b1111 R
b1111 7
b1 /
b1 Q
b1 2
1=
b1 ;
b1 <
b1 O
b1 B
b1 G
b1 N
14
b100 ?
b11 D
b100000000011110010011 )
b100000000011110010011 I
b100000000011110010011 %
b100000000011110010011 :
b100000000011110010011 |
1!
#80
0!
#90
0>
b0 $
b0 ,
b0 v
b0 1
b0 S
b0 A
b0 H
b101 y
b0 C
b0 E
b101 &
b101 *
b101 9
b1101 0
b1101 R
b1101 7
b0 /
b0 Q
b0 2
1=
b0 ;
b0 <
b0 O
b1 B
b1 G
b1 N
14
b101 8
b11010010011 )
b11010010011 I
b11010010011 %
b11010010011 :
b11010010011 |
b100 ?
b100 D
1!
#100
0!
#110
b110 y
1>
b1 $
b1 ,
b1 v
b1 1
b1 S
b1 A
b1 H
b110 &
b110 *
b110 9
b1 6
b1 F
b1 U
b110 8
b1100 0
b1100 R
b1100 7
b1111 .
b1111 P
b1111 3
1=
b1 B
b1 G
b1 N
14
b101 ?
b101 D
b1111000011000010011 )
b1111000011000010011 I
b1111000011000010011 %
b1111000011000010011 :
b1111000011000010011 |
1!
#120
0!
#130
b111 y
b111 &
b111 *
b111 9
b1111 0
b1111 R
b1111 7
b1101 /
b1101 Q
b1101 2
0=
b1 B
b1 G
b1 N
14
b110011 J
b111 8
b110101111000011110110011 )
b110101111000011110110011 I
b110101111000011110110011 %
b110101111000011110110011 :
b110101111000011110110011 |
b110 ?
b110 D
1!
#140
0!
#150
b1000 y
b100000 $
b100000 ,
b100000 v
b100000 1
b100000 S
b100000 A
b100000 H
b1000 &
b1000 *
b1000 9
b0 6
b0 F
b0 U
b1 #
b1 -
b1 w
b1 5
b1 T
b100000 C
b100000 E
b1000 8
b0 0
b0 R
b0 7
b0 .
b0 P
b0 3
b1111 /
b1111 Q
b1111 2
1"
1=
b100000 ;
b100000 <
b100000 O
b1 B
b1 G
b1 N
04
b100011 J
b10 L
b1 M
b100111 ?
b111 D
b10111100000010000000100011 )
b10111100000010000000100011 I
b10111100000010000000100011 %
b10111100000010000000100011 :
b10111100000010000000100011 |
1!
#160
0!
#170
b1011 $
b1011 ,
b1011 v
b1011 1
b1011 S
b1011 A
b1011 H
b1001 y
b1100 6
b1100 F
b1100 U
b0 #
b0 -
b0 w
b0 5
b0 T
b11111111111111111111111111111111 C
b11111111111111111111111111111111 E
b1001 &
b1001 *
b1001 9
b1110 0
b1110 R
b1110 7
b1110 .
b1110 P
b1110 3
b11111 /
b11111 Q
b11111 2
14
0"
1=
b11111111111111111111111111111111 ;
b111111111111 <
b111111111111 O
b1 B
b1 G
b1 N
b10011 J
b0 L
b11 M
b11111 K
b1001 8
b11111111111101110000011100010011 )
b11111111111101110000011100010011 I
b11111111111101110000011100010011 %
b11111111111101110000011100010011 :
b11111111111101110000011100010011 |
b1 '
b1 x
b111 ?
b1000 D
1!
#180
0!
#190
b1010 y
b1010 &
b1010 *
b1010 9
b0 C
b0 E
1>
b1 $
b1 ,
b1 v
b1 1
b1 S
b1 A
b1 H
b1010 8
b1 6
b1 F
b1 U
b1101 0
b1101 R
b1101 7
b1100 .
b1100 P
b1100 3
b0 /
b0 Q
b0 2
1=
b0 ;
b0 <
b0 O
b1 B
b1 G
b1 N
14
b0 M
b0 K
b1001 ?
b1001 D
b1100000011010010011 )
b1100000011010010011 I
b1100000011010010011 %
b1100000011010010011 :
b1100000011010010011 |
1!
#200
0!
#210
b1011 $
b1011 ,
b1011 v
b1011 1
b1011 S
b1011 A
b1011 H
b101 y
b1011 6
b1011 F
b1011 U
1(
b101 &
b101 *
b101 9
b1110 .
b1110 P
b1110 3
1@
b11111111111111111111111111111011 ;
b111111111011 <
b111111111011 O
0=
b100 B
b100 G
b100 N
04
b1100011 J
b1 L
b11 M
b11111 K
b101 8
b11111110000001110001011011100011 )
b11111110000001110001011011100011 I
b11111110000001110001011011100011 %
b11111110000001110001011011100011 :
b11111110000001110001011011100011 |
b101 ?
b1010 D
1!
#220
0!
#230
b110 y
b1 $
b1 ,
b1 v
b1 1
b1 S
b1 A
b1 H
b110 &
b110 *
b110 9
b1 6
b1 F
b1 U
0(
b110 8
b1100 0
b1100 R
b1100 7
b1111 .
b1111 P
b1111 3
1=
14
0@
b0 ;
b0 <
b0 O
b1 B
b1 G
b1 N
b10011 J
b0 L
b0 M
b0 K
b101 ?
b101 D
b1111000011000010011 )
b1111000011000010011 I
b1111000011000010011 %
b1111000011000010011 :
b1111000011000010011 |
1!
#240
0!
#250
b10 $
b10 ,
b10 v
b10 1
b10 S
b10 A
b10 H
b1 C
b1 E
b111 y
b1 #
b1 -
b1 w
b1 5
b1 T
b111 &
b111 *
b111 9
b1111 0
b1111 R
b1111 7
b1101 /
b1101 Q
b1101 2
0=
b1 B
b1 G
b1 N
14
b110011 J
b111 8
b110101111000011110110011 )
b110101111000011110110011 I
b110101111000011110110011 %
b110101111000011110110011 :
b110101111000011110110011 |
b110 ?
b110 D
1!
#260
0!
#270
b1000 y
b1000 &
b1000 *
b1000 9
b10 #
b10 -
b10 w
b10 5
b10 T
b100000 C
b100000 E
b100000 $
b100000 ,
b100000 v
b100000 1
b100000 S
b100000 A
b100000 H
b1000 8
b0 6
b0 F
b0 U
b0 0
b0 R
b0 7
b0 .
b0 P
b0 3
b1111 /
b1111 Q
b1111 2
1"
1=
b100000 ;
b100000 <
b100000 O
b1 B
b1 G
b1 N
04
b100011 J
b10 L
b1 M
b100111 ?
b111 D
b10111100000010000000100011 )
b10111100000010000000100011 I
b10111100000010000000100011 %
b10111100000010000000100011 :
b10111100000010000000100011 |
1!
#280
0!
#290
b1010 $
b1010 ,
b1010 v
b1010 1
b1010 S
b1010 A
b1010 H
b1001 y
b1011 6
b1011 F
b1011 U
b0 #
b0 -
b0 w
b0 5
b0 T
b11111111111111111111111111111111 C
b11111111111111111111111111111111 E
b1001 &
b1001 *
b1001 9
b1110 0
b1110 R
b1110 7
b1110 .
b1110 P
b1110 3
b11111 /
b11111 Q
b11111 2
14
0"
1=
b11111111111111111111111111111111 ;
b111111111111 <
b111111111111 O
b1 B
b1 G
b1 N
b10011 J
b0 L
b11 M
b11111 K
b1001 8
b11111111111101110000011100010011 )
b11111111111101110000011100010011 I
b11111111111101110000011100010011 %
b11111111111101110000011100010011 :
b11111111111101110000011100010011 |
b10 '
b10 x
b111 ?
b1000 D
1!
#300
0!
#310
b1010 y
b1010 &
b1010 *
b1010 9
b0 C
b0 E
1>
b1 $
b1 ,
b1 v
b1 1
b1 S
b1 A
b1 H
b1010 8
b1 6
b1 F
b1 U
b1101 0
b1101 R
b1101 7
b1100 .
b1100 P
b1100 3
b0 /
b0 Q
b0 2
1=
b0 ;
b0 <
b0 O
b1 B
b1 G
b1 N
14
b0 M
b0 K
b1001 ?
b1001 D
b1100000011010010011 )
b1100000011010010011 I
b1100000011010010011 %
b1100000011010010011 :
b1100000011010010011 |
1!
#320
0!
#330
b1010 $
b1010 ,
b1010 v
b1010 1
b1010 S
b1010 A
b1010 H
b101 y
b1010 6
b1010 F
b1010 U
1(
b101 &
b101 *
b101 9
b1110 .
b1110 P
b1110 3
1@
b11111111111111111111111111111011 ;
b111111111011 <
b111111111011 O
0=
b100 B
b100 G
b100 N
04
b1100011 J
b1 L
b11 M
b11111 K
b101 8
b11111110000001110001011011100011 )
b11111110000001110001011011100011 I
b11111110000001110001011011100011 %
b11111110000001110001011011100011 :
b11111110000001110001011011100011 |
b101 ?
b1010 D
1!
#340
0!
#350
b110 y
b10 $
b10 ,
b10 v
b10 1
b10 S
b10 A
b10 H
b110 &
b110 *
b110 9
b10 6
b10 F
b10 U
0(
b110 8
b1100 0
b1100 R
b1100 7
b1111 .
b1111 P
b1111 3
1=
14
0@
b0 ;
b0 <
b0 O
b1 B
b1 G
b1 N
b10011 J
b0 L
b0 M
b0 K
b101 ?
b101 D
b1111000011000010011 )
b1111000011000010011 I
b1111000011000010011 %
b1111000011000010011 :
b1111000011000010011 |
1!
#360
0!
#370
b11 $
b11 ,
b11 v
b11 1
b11 S
b11 A
b11 H
b1 C
b1 E
b111 y
b1 #
b1 -
b1 w
b1 5
b1 T
b111 &
b111 *
b111 9
b1111 0
b1111 R
b1111 7
b1101 /
b1101 Q
b1101 2
0=
b1 B
b1 G
b1 N
14
b110011 J
b111 8
b110101111000011110110011 )
b110101111000011110110011 I
b110101111000011110110011 %
b110101111000011110110011 :
b110101111000011110110011 |
b110 ?
b110 D
1!
#380
0!
#390
b1000 y
b1000 &
b1000 *
b1000 9
b11 #
b11 -
b11 w
b11 5
b11 T
b100000 C
b100000 E
b100000 $
b100000 ,
b100000 v
b100000 1
b100000 S
b100000 A
b100000 H
b1000 8
b0 6
b0 F
b0 U
b0 0
b0 R
b0 7
b0 .
b0 P
b0 3
b1111 /
b1111 Q
b1111 2
1"
1=
b100000 ;
b100000 <
b100000 O
b1 B
b1 G
b1 N
04
b100011 J
b10 L
b1 M
b100111 ?
b111 D
b10111100000010000000100011 )
b10111100000010000000100011 I
b10111100000010000000100011 %
b10111100000010000000100011 :
b10111100000010000000100011 |
1!
#400
0!
#410
b1001 $
b1001 ,
b1001 v
b1001 1
b1001 S
b1001 A
b1001 H
b1001 y
b1010 6
b1010 F
b1010 U
b0 #
b0 -
b0 w
b0 5
b0 T
b11111111111111111111111111111111 C
b11111111111111111111111111111111 E
b1001 &
b1001 *
b1001 9
b1110 0
b1110 R
b1110 7
b1110 .
b1110 P
b1110 3
b11111 /
b11111 Q
b11111 2
14
0"
1=
b11111111111111111111111111111111 ;
b111111111111 <
b111111111111 O
b1 B
b1 G
b1 N
b10011 J
b0 L
b11 M
b11111 K
b1001 8
b11111111111101110000011100010011 )
b11111111111101110000011100010011 I
b11111111111101110000011100010011 %
b11111111111101110000011100010011 :
b11111111111101110000011100010011 |
b11 '
b11 x
b111 ?
b1000 D
1!
#420
0!
#430
b1010 y
b1010 &
b1010 *
b1010 9
b0 C
b0 E
b10 $
b10 ,
b10 v
b10 1
b10 S
b10 A
b10 H
b1010 8
b10 6
b10 F
b10 U
b1101 0
b1101 R
b1101 7
b1100 .
b1100 P
b1100 3
b0 /
b0 Q
b0 2
1=
b0 ;
b0 <
b0 O
b1 B
b1 G
b1 N
14
b0 M
b0 K
b1001 ?
b1001 D
b1100000011010010011 )
b1100000011010010011 I
b1100000011010010011 %
b1100000011010010011 :
b1100000011010010011 |
1!
#440
0!
#450
b1001 $
b1001 ,
b1001 v
b1001 1
b1001 S
b1001 A
b1001 H
b101 y
b1001 6
b1001 F
b1001 U
1(
b101 &
b101 *
b101 9
b1110 .
b1110 P
b1110 3
1@
b11111111111111111111111111111011 ;
b111111111011 <
b111111111011 O
0=
b100 B
b100 G
b100 N
04
b1100011 J
b1 L
b11 M
b11111 K
b101 8
b11111110000001110001011011100011 )
b11111110000001110001011011100011 I
b11111110000001110001011011100011 %
b11111110000001110001011011100011 :
b11111110000001110001011011100011 |
b101 ?
b1010 D
1!
#460
0!
#470
b110 y
b11 $
b11 ,
b11 v
b11 1
b11 S
b11 A
b11 H
b110 &
b110 *
b110 9
b11 6
b11 F
b11 U
0(
b110 8
b1100 0
b1100 R
b1100 7
b1111 .
b1111 P
b1111 3
1=
14
0@
b0 ;
b0 <
b0 O
b1 B
b1 G
b1 N
b10011 J
b0 L
b0 M
b0 K
b101 ?
b101 D
b1111000011000010011 )
b1111000011000010011 I
b1111000011000010011 %
b1111000011000010011 :
b1111000011000010011 |
1!
#480
0!
#490
b101 $
b101 ,
b101 v
b101 1
b101 S
b101 A
b101 H
b10 C
b10 E
b111 y
b10 #
b10 -
b10 w
b10 5
b10 T
b111 &
b111 *
b111 9
b1111 0
b1111 R
b1111 7
b1101 /
b1101 Q
b1101 2
0=
b1 B
b1 G
b1 N
14
b110011 J
b111 8
b110101111000011110110011 )
b110101111000011110110011 I
b110101111000011110110011 %
b110101111000011110110011 :
b110101111000011110110011 |
b110 ?
b110 D
1!
#500
0!
#510
b1000 y
b1000 &
b1000 *
b1000 9
b101 #
b101 -
b101 w
b101 5
b101 T
b100000 C
b100000 E
b100000 $
b100000 ,
b100000 v
b100000 1
b100000 S
b100000 A
b100000 H
b1000 8
b0 6
b0 F
b0 U
b0 0
b0 R
b0 7
b0 .
b0 P
b0 3
b1111 /
b1111 Q
b1111 2
1"
1=
b100000 ;
b100000 <
b100000 O
b1 B
b1 G
b1 N
04
b100011 J
b10 L
b1 M
b100111 ?
b111 D
b10111100000010000000100011 )
b10111100000010000000100011 I
b10111100000010000000100011 %
b10111100000010000000100011 :
b10111100000010000000100011 |
1!
#520
0!
#530
b1000 $
b1000 ,
b1000 v
b1000 1
b1000 S
b1000 A
b1000 H
b1001 y
b1001 6
b1001 F
b1001 U
b0 #
b0 -
b0 w
b0 5
b0 T
b11111111111111111111111111111111 C
b11111111111111111111111111111111 E
b1001 &
b1001 *
b1001 9
b1110 0
b1110 R
b1110 7
b1110 .
b1110 P
b1110 3
b11111 /
b11111 Q
b11111 2
14
0"
1=
b11111111111111111111111111111111 ;
b111111111111 <
b111111111111 O
b1 B
b1 G
b1 N
b10011 J
b0 L
b11 M
b11111 K
b1001 8
b11111111111101110000011100010011 )
b11111111111101110000011100010011 I
b11111111111101110000011100010011 %
b11111111111101110000011100010011 :
b11111111111101110000011100010011 |
b101 '
b101 x
b111 ?
b1000 D
1!
#540
0!
#550
b1010 y
b1010 &
b1010 *
b1010 9
b0 C
b0 E
b11 $
b11 ,
b11 v
b11 1
b11 S
b11 A
b11 H
b1010 8
b11 6
b11 F
b11 U
b1101 0
b1101 R
b1101 7
b1100 .
b1100 P
b1100 3
b0 /
b0 Q
b0 2
1=
b0 ;
b0 <
b0 O
b1 B
b1 G
b1 N
14
b0 M
b0 K
b1001 ?
b1001 D
b1100000011010010011 )
b1100000011010010011 I
b1100000011010010011 %
b1100000011010010011 :
b1100000011010010011 |
1!
#560
0!
#570
b1000 $
b1000 ,
b1000 v
b1000 1
b1000 S
b1000 A
b1000 H
b101 y
b1000 6
b1000 F
b1000 U
1(
b101 &
b101 *
b101 9
b1110 .
b1110 P
b1110 3
1@
b11111111111111111111111111111011 ;
b111111111011 <
b111111111011 O
0=
b100 B
b100 G
b100 N
04
b1100011 J
b1 L
b11 M
b11111 K
b101 8
b11111110000001110001011011100011 )
b11111110000001110001011011100011 I
b11111110000001110001011011100011 %
b11111110000001110001011011100011 :
b11111110000001110001011011100011 |
b101 ?
b1010 D
1!
#580
0!
#590
b110 y
b101 $
b101 ,
b101 v
b101 1
b101 S
b101 A
b101 H
b110 &
b110 *
b110 9
b101 6
b101 F
b101 U
0(
b110 8
b1100 0
b1100 R
b1100 7
b1111 .
b1111 P
b1111 3
1=
14
0@
b0 ;
b0 <
b0 O
b1 B
b1 G
b1 N
b10011 J
b0 L
b0 M
b0 K
b101 ?
b101 D
b1111000011000010011 )
b1111000011000010011 I
b1111000011000010011 %
b1111000011000010011 :
b1111000011000010011 |
1!
#600
0!
#610
b1000 $
b1000 ,
b1000 v
b1000 1
b1000 S
b1000 A
b1000 H
b11 C
b11 E
b111 y
b11 #
b11 -
b11 w
b11 5
b11 T
b111 &
b111 *
b111 9
b1111 0
b1111 R
b1111 7
b1101 /
b1101 Q
b1101 2
0=
b1 B
b1 G
b1 N
14
b110011 J
b111 8
b110101111000011110110011 )
b110101111000011110110011 I
b110101111000011110110011 %
b110101111000011110110011 :
b110101111000011110110011 |
b110 ?
b110 D
1!
#620
0!
#630
b1000 y
b1000 &
b1000 *
b1000 9
b1000 #
b1000 -
b1000 w
b1000 5
b1000 T
b100000 C
b100000 E
b100000 $
b100000 ,
b100000 v
b100000 1
b100000 S
b100000 A
b100000 H
b1000 8
b0 6
b0 F
b0 U
b0 0
b0 R
b0 7
b0 .
b0 P
b0 3
b1111 /
b1111 Q
b1111 2
1"
1=
b100000 ;
b100000 <
b100000 O
b1 B
b1 G
b1 N
04
b100011 J
b10 L
b1 M
b100111 ?
b111 D
b10111100000010000000100011 )
b10111100000010000000100011 I
b10111100000010000000100011 %
b10111100000010000000100011 :
b10111100000010000000100011 |
1!
#640
0!
#650
b111 $
b111 ,
b111 v
b111 1
b111 S
b111 A
b111 H
b1001 y
b1000 6
b1000 F
b1000 U
b0 #
b0 -
b0 w
b0 5
b0 T
b11111111111111111111111111111111 C
b11111111111111111111111111111111 E
b1001 &
b1001 *
b1001 9
b1110 0
b1110 R
b1110 7
b1110 .
b1110 P
b1110 3
b11111 /
b11111 Q
b11111 2
14
0"
1=
b11111111111111111111111111111111 ;
b111111111111 <
b111111111111 O
b1 B
b1 G
b1 N
b10011 J
b0 L
b11 M
b11111 K
b1001 8
b11111111111101110000011100010011 )
b11111111111101110000011100010011 I
b11111111111101110000011100010011 %
b11111111111101110000011100010011 :
b11111111111101110000011100010011 |
b1000 '
b1000 x
b111 ?
b1000 D
1!
#660
0!
#670
b1010 y
b1010 &
b1010 *
b1010 9
b0 C
b0 E
b101 $
b101 ,
b101 v
b101 1
b101 S
b101 A
b101 H
b1010 8
b101 6
b101 F
b101 U
b1101 0
b1101 R
b1101 7
b1100 .
b1100 P
b1100 3
b0 /
b0 Q
b0 2
1=
b0 ;
b0 <
b0 O
b1 B
b1 G
b1 N
14
b0 M
b0 K
b1001 ?
b1001 D
b1100000011010010011 )
b1100000011010010011 I
b1100000011010010011 %
b1100000011010010011 :
b1100000011010010011 |
1!
#680
0!
#690
b111 $
b111 ,
b111 v
b111 1
b111 S
b111 A
b111 H
b101 y
b111 6
b111 F
b111 U
1(
b101 &
b101 *
b101 9
b1110 .
b1110 P
b1110 3
1@
b11111111111111111111111111111011 ;
b111111111011 <
b111111111011 O
0=
b100 B
b100 G
b100 N
04
b1100011 J
b1 L
b11 M
b11111 K
b101 8
b11111110000001110001011011100011 )
b11111110000001110001011011100011 I
b11111110000001110001011011100011 %
b11111110000001110001011011100011 :
b11111110000001110001011011100011 |
b101 ?
b1010 D
1!
#700
0!
#710
b110 y
b1000 $
b1000 ,
b1000 v
b1000 1
b1000 S
b1000 A
b1000 H
b110 &
b110 *
b110 9
b1000 6
b1000 F
b1000 U
0(
b110 8
b1100 0
b1100 R
b1100 7
b1111 .
b1111 P
b1111 3
1=
14
0@
b0 ;
b0 <
b0 O
b1 B
b1 G
b1 N
b10011 J
b0 L
b0 M
b0 K
b101 ?
b101 D
b1111000011000010011 )
b1111000011000010011 I
b1111000011000010011 %
b1111000011000010011 :
b1111000011000010011 |
1!
#720
0!
#730
b1101 $
b1101 ,
b1101 v
b1101 1
b1101 S
b1101 A
b1101 H
b101 C
b101 E
b111 y
b101 #
b101 -
b101 w
b101 5
b101 T
b111 &
b111 *
b111 9
b1111 0
b1111 R
b1111 7
b1101 /
b1101 Q
b1101 2
0=
b1 B
b1 G
b1 N
14
b110011 J
b111 8
b110101111000011110110011 )
b110101111000011110110011 I
b110101111000011110110011 %
b110101111000011110110011 :
b110101111000011110110011 |
b110 ?
b110 D
1!
#740
0!
#750
b1000 y
b1000 &
b1000 *
b1000 9
b1101 #
b1101 -
b1101 w
b1101 5
b1101 T
b100000 C
b100000 E
b100000 $
b100000 ,
b100000 v
b100000 1
b100000 S
b100000 A
b100000 H
b1000 8
b0 6
b0 F
b0 U
b0 0
b0 R
b0 7
b0 .
b0 P
b0 3
b1111 /
b1111 Q
b1111 2
1"
1=
b100000 ;
b100000 <
b100000 O
b1 B
b1 G
b1 N
04
b100011 J
b10 L
b1 M
b100111 ?
b111 D
b10111100000010000000100011 )
b10111100000010000000100011 I
b10111100000010000000100011 %
b10111100000010000000100011 :
b10111100000010000000100011 |
1!
#760
0!
#770
b110 $
b110 ,
b110 v
b110 1
b110 S
b110 A
b110 H
b1001 y
b111 6
b111 F
b111 U
b0 #
b0 -
b0 w
b0 5
b0 T
b11111111111111111111111111111111 C
b11111111111111111111111111111111 E
b1001 &
b1001 *
b1001 9
b1110 0
b1110 R
b1110 7
b1110 .
b1110 P
b1110 3
b11111 /
b11111 Q
b11111 2
14
0"
1=
b11111111111111111111111111111111 ;
b111111111111 <
b111111111111 O
b1 B
b1 G
b1 N
b10011 J
b0 L
b11 M
b11111 K
b1001 8
b11111111111101110000011100010011 )
b11111111111101110000011100010011 I
b11111111111101110000011100010011 %
b11111111111101110000011100010011 :
b11111111111101110000011100010011 |
b1101 '
b1101 x
b111 ?
b1000 D
1!
#780
0!
#790
b1010 y
b1010 &
b1010 *
b1010 9
b0 C
b0 E
b1000 $
b1000 ,
b1000 v
b1000 1
b1000 S
b1000 A
b1000 H
b1010 8
b1000 6
b1000 F
b1000 U
b1101 0
b1101 R
b1101 7
b1100 .
b1100 P
b1100 3
b0 /
b0 Q
b0 2
1=
b0 ;
b0 <
b0 O
b1 B
b1 G
b1 N
14
b0 M
b0 K
b1001 ?
b1001 D
b1100000011010010011 )
b1100000011010010011 I
b1100000011010010011 %
b1100000011010010011 :
b1100000011010010011 |
1!
#800
0!
#810
b110 $
b110 ,
b110 v
b110 1
b110 S
b110 A
b110 H
b101 y
b110 6
b110 F
b110 U
1(
b101 &
b101 *
b101 9
b1110 .
b1110 P
b1110 3
1@
b11111111111111111111111111111011 ;
b111111111011 <
b111111111011 O
0=
b100 B
b100 G
b100 N
04
b1100011 J
b1 L
b11 M
b11111 K
b101 8
b11111110000001110001011011100011 )
b11111110000001110001011011100011 I
b11111110000001110001011011100011 %
b11111110000001110001011011100011 :
b11111110000001110001011011100011 |
b101 ?
b1010 D
1!
#820
0!
#830
b110 y
b1101 $
b1101 ,
b1101 v
b1101 1
b1101 S
b1101 A
b1101 H
b110 &
b110 *
b110 9
b1101 6
b1101 F
b1101 U
0(
b110 8
b1100 0
b1100 R
b1100 7
b1111 .
b1111 P
b1111 3
1=
14
0@
b0 ;
b0 <
b0 O
b1 B
b1 G
b1 N
b10011 J
b0 L
b0 M
b0 K
b101 ?
b101 D
b1111000011000010011 )
b1111000011000010011 I
b1111000011000010011 %
b1111000011000010011 :
b1111000011000010011 |
1!
#840
0!
